{ "now" : 1678646305.0, "gain_db" : 59.0, "estimated_ppm" : -0.9,
"aircraft_with_pos": 13, "aircraft_without_pos": 2, "aircraft_count_by_type": { "adsb_icao": 13, "adsb_icao_nt": 0, "adsr_icao": 0, "tisb_icao": 0, "adsc": 0, "mlat": 0, "other": 0, "mode_s": 2, "adsb_other": 0, "adsr_other": 0, "tisb_trackfile": 0, "tisb_other": 0, "mode_ac": 0, "unknown": 0},
"last1min":{"start":1678646245.0,"end":1678646305.0,"local":{"samples_processed":143917056,"samples_dropped":0,"samples_lost":0,"modeac":0,"modes":2062983,"bad":1501742,"unknown_icao":555085,"accepted":[5811,345],"signal":-7.6,"noise":-19.6,"peak_signal":-2.7,"strong_signals":53,
"pre_phase_1":[  1039890,  1039890,  1007367,  1007367,   760248],"best_phase" :[     1247,     1184,     1277,     1251,     1197]},"messages_valid": 6156,"position_count_total": 287,"position_count_by_type": {"adsb_icao": 287,"adsb_icao_nt": 0,"adsr_icao": 0,"tisb_icao": 0,"adsc": 0,"mlat": 0,"other": 0,"mode_s": 0,"adsb_other": 0,"adsr_other": 0,"tisb_trackfile": 0,"tisb_other": 0,"mode_ac": 0,"unknown": 0},"cpr":{"surface":0,"airborne":297,"global_ok":264,"global_bad":0,"global_range":0,"global_speed":0,"global_skipped":0,"local_ok":23,"local_aircraft_relative":23,"local_receiver_relative":0,"local_skipped":10,"local_range":0,"local_speed":0,"filtered":0},"altitude_suppressed":0,"cpu":{"demod":4620,"reader":487,"background":2,"aircraft_json":44,"globe_json":0,"binCraft":0,"trace_json":0,"heatmap_and_state":1,"api_workers":0,"api_update":39,"remove_stale":22},"tracks":{"all":4,"single_message":1},"messages":6156,"max_distance":0},
"last5min":{"start":1678646005.0,"end":1678646305.0,"local":{"samples_processed":719978496,"samples_dropped":0,"samples_lost":0,"modeac":0,"modes":10292220,"bad":7492499,"unknown_icao":2772269,"accepted":[25915,1537],"signal":-6.6,"noise":-19.6,"peak_signal":-1.3,"strong_signals":2738,
"pre_phase_1":[  5205802,  5205802,  5045725,  5045725,  3778982],"best_phase" :[     5545,     5226,     5576,     5485,     5620]},"messages_valid": 27452,"position_count_total": 1323,"position_count_by_type": {"adsb_icao": 1323,"adsb_icao_nt": 0,"adsr_icao": 0,"tisb_icao": 0,"adsc": 0,"mlat": 0,"other": 0,"mode_s": 0,"adsb_other": 0,"adsr_other": 0,"tisb_trackfile": 0,"tisb_other": 0,"mode_ac": 0,"unknown": 0},"cpr":{"surface":0,"airborne":1357,"global_ok":1252,"global_bad":0,"global_range":0,"global_speed":0,"global_skipped":0,"local_ok":71,"local_aircraft_relative":71,"local_receiver_relative":0,"local_skipped":34,"local_range":0,"local_speed":0,"filtered":0},"altitude_suppressed":0,"cpu":{"demod":22446,"reader":2401,"background":14,"aircraft_json":201,"globe_json":0,"binCraft":0,"trace_json":0,"heatmap_and_state":7,"api_workers":0,"api_update":168,"remove_stale":98},"tracks":{"all":27,"single_message":6},"messages":27452,"max_distance":0},
"last15min":{"start":1678645405.0,"end":1678646305.0,"local":{"samples_processed":2159935488,"samples_dropped":0,"samples_lost":0,"modeac":0,"modes":30320337,"bad":22119538,"unknown_icao":8135028,"accepted":[62304,3467],"signal":-6.5,"noise":-20.0,"peak_signal":-1.3,"strong_signals":7513,
"pre_phase_1":[ 15341032, 15341032, 14949612, 14949612, 10960792],"best_phase" :[    12950,    12914,    13361,    13297,    13249]},"messages_valid": 65771,"position_count_total": 3281,"position_count_by_type": {"adsb_icao": 3281,"adsb_icao_nt": 0,"adsr_icao": 0,"tisb_icao": 0,"adsc": 0,"mlat": 0,"other": 0,"mode_s": 0,"adsb_other": 0,"adsr_other": 0,"tisb_trackfile": 0,"tisb_other": 0,"mode_ac": 0,"unknown": 0},"cpr":{"surface":3,"airborne":3346,"global_ok":3079,"global_bad":0,"global_range":0,"global_speed":0,"global_skipped":0,"local_ok":202,"local_aircraft_relative":202,"local_receiver_relative":0,"local_skipped":68,"local_range":0,"local_speed":0,"filtered":0},"altitude_suppressed":0,"cpu":{"demod":78517,"reader":7933,"background":56,"aircraft_json":678,"globe_json":0,"binCraft":0,"trace_json":0,"heatmap_and_state":26,"api_workers":0,"api_update":533,"remove_stale":390},"tracks":{"all":55,"single_message":25},"messages":65771,"max_distance":0},
"total":{"start":1678628123.8,"end":1678646305.0,"local":{"samples_processed":43633082368,"samples_dropped":0,"samples_lost":0,"modeac":0,"modes":646002678,"bad":469173271,"unknown_icao":174859419,"accepted":[1870068,99920],"signal":-6.5,"noise":-20.4,"peak_signal":-0.8,"strong_signals":249556,
"pre_phase_1":[331368761,331368761,322744224,322744224,237084095],"best_phase" :[   384727,   387267,   397522,   400110,   400362]},"messages_valid": 1969988,"position_count_total": 98868,"position_count_by_type": {"adsb_icao": 98868,"adsb_icao_nt": 0,"adsr_icao": 0,"tisb_icao": 0,"adsc": 0,"mlat": 0,"other": 0,"mode_s": 0,"adsb_other": 0,"adsr_other": 0,"tisb_trackfile": 0,"tisb_other": 0,"mode_ac": 0,"unknown": 0},"cpr":{"surface":33,"airborne":100507,"global_ok":93906,"global_bad":1,"global_range":0,"global_speed":1,"global_skipped":136,"local_ok":4962,"local_aircraft_relative":4962,"local_receiver_relative":0,"local_skipped":1671,"local_range":0,"local_speed":0,"filtered":0},"altitude_suppressed":0,"cpu":{"demod":2052473,"reader":171994,"background":1493,"aircraft_json":16532,"globe_json":0,"binCraft":0,"trace_json":0,"heatmap_and_state":574,"api_workers":0,"api_update":14080,"remove_stale":10011},"tracks":{"all":1251,"single_message":590},"messages":1969988,"max_distance":0}
}
